ula_tb.vcd
$date
	Wed Nov 27 21:34:34 2024
$end
$version
	Icarus Verilog
$end
$timescale
	1ns
$end
$scope module ula_tb $end
$var wire 8 ! s [7:0] $end
$var reg 8 " a [7:0] $end
$var reg 8 # b [7:0] $end
$var reg 1 $ clk $end
$var reg 3 % opcode [2:0] $end
$scope module uut $end
$var wire 8 & a [7:0] $end
$var wire 8 ' b [7:0] $end
$var wire 1 $ clk $end
$var wire 3 ( opcode [2:0] $end
$var wire 8 ) saida_tristate [7:0] $end
$var wire 8 * xor_res [7:0] $end
$var wire 9 + sum_res [8:0] $end
$var wire 9 , sub_res [8:0] $end
$var wire 8 - s [7:0] $end
$var wire 8 . or_res [7:0] $end
$var wire 8 / not_res [7:0] $end
$var wire 1 0 igualdade_res $end
$var wire 8 1 enable [7:0] $end
$var wire 1 2 desigualdade_res $end
$var wire 8 3 b_reg [7:0] $end
$var wire 8 4 and_res [7:0] $end
$var wire 8 5 a_reg [7:0] $end
$var parameter 32 6 N $end
$var reg 1 7 flag $end
$scope module and_modulo $end
$var wire 8 8 y [7:0] $end
$var wire 8 9 b [7:0] $end
$var wire 8 : a [7:0] $end
$upscope $end
$scope module decoder $end
$var wire 3 ; A [2:0] $end
$var wire 1 < E $end
$var reg 8 = S [7:0] $end
$upscope $end
$scope module desigualdade_modulo $end
$var wire 8 > xor_out [7:0] $end
$var wire 1 2 s $end
$var wire 8 ? b [7:0] $end
$var wire 8 @ a [7:0] $end
$upscope $end
$scope module igualdade_modulo $end
$var wire 8 A xnor_out [7:0] $end
$var wire 1 0 s $end
$var wire 8 B b [7:0] $end
$var wire 8 C a [7:0] $end
$upscope $end
$scope module not_modulo $end
$var wire 8 D y [7:0] $end
$var wire 8 E a [7:0] $end
$upscope $end
$scope module or_modulo $end
$var wire 8 F y [7:0] $end
$var wire 8 G b [7:0] $end
$var wire 8 H a [7:0] $end
$upscope $end
$scope module regA $end
$var wire 1 $ CK $end
$var wire 1 I CLR $end
$var wire 8 J D [7:0] $end
$var wire 1 K PR $end
$var wire 8 L Q [7:0] $end
$var parameter 32 M N $end
$scope begin genblk1[0] $end
$var parameter 2 N i $end
$scope module ff $end
$var wire 1 $ CK $end
$var wire 1 I CLR $end
$var wire 1 O D $end
$var wire 1 K PR $end
$var reg 1 P Q $end
$upscope $end
$upscope $end
$scope begin genblk1[1] $end
$var parameter 2 Q i $end
$scope module ff $end
$var wire 1 $ CK $end
$var wire 1 I CLR $end
$var wire 1 R D $end
$var wire 1 K PR $end
$var reg 1 S Q $end
$upscope $end
$upscope $end
$scope begin genblk1[2] $end
$var parameter 3 T i $end
$scope module ff $end
$var wire 1 $ CK $end
$var wire 1 I CLR $end
$var wire 1 U D $end
$var wire 1 K PR $end
$var reg 1 V Q $end
$upscope $end
$upscope $end
$scope begin genblk1[3] $end
$var parameter 3 W i $end
$scope module ff $end
$var wire 1 $ CK $end
$var wire 1 I CLR $end
$var wire 1 X D $end
$var wire 1 K PR $end
$var reg 1 Y Q $end
$upscope $end
$upscope $end
$scope begin genblk1[4] $end
$var parameter 4 Z i $end
$scope module ff $end
$var wire 1 $ CK $end
$var wire 1 I CLR $end
$var wire 1 [ D $end
$var wire 1 K PR $end
$var reg 1 \ Q $end
$upscope $end
$upscope $end
$scope begin genblk1[5] $end
$var parameter 4 ] i $end
$scope module ff $end
$var wire 1 $ CK $end
$var wire 1 I CLR $end
$var wire 1 ^ D $end
$var wire 1 K PR $end
$var reg 1 _ Q $end
$upscope $end
$upscope $end
$scope begin genblk1[6] $end
$var parameter 4 ` i $end
$scope module ff $end
$var wire 1 $ CK $end
$var wire 1 I CLR $end
$var wire 1 a D $end
$var wire 1 K PR $end
$var reg 1 b Q $end
$upscope $end
$upscope $end
$scope begin genblk1[7] $end
$var parameter 4 c i $end
$scope module ff $end
$var wire 1 $ CK $end
$var wire 1 I CLR $end
$var wire 1 d D $end
$var wire 1 K PR $end
$var reg 1 e Q $end
$upscope $end
$upscope $end
$upscope $end
$scope module regB $end
$var wire 1 $ CK $end
$var wire 1 f CLR $end
$var wire 8 g D [7:0] $end
$var wire 1 h PR $end
$var wire 8 i Q [7:0] $end
$var parameter 32 j N $end
$scope begin genblk1[0] $end
$var parameter 2 k i $end
$scope module ff $end
$var wire 1 $ CK $end
$var wire 1 f CLR $end
$var wire 1 l D $end
$var wire 1 h PR $end
$var reg 1 m Q $end
$upscope $end
$upscope $end
$scope begin genblk1[1] $end
$var parameter 2 n i $end
$scope module ff $end
$var wire 1 $ CK $end
$var wire 1 f CLR $end
$var wire 1 o D $end
$var wire 1 h PR $end
$var reg 1 p Q $end
$upscope $end
$upscope $end
$scope begin genblk1[2] $end
$var parameter 3 q i $end
$scope module ff $end
$var wire 1 $ CK $end
$var wire 1 f CLR $end
$var wire 1 r D $end
$var wire 1 h PR $end
$var reg 1 s Q $end
$upscope $end
$upscope $end
$scope begin genblk1[3] $end
$var parameter 3 t i $end
$scope module ff $end
$var wire 1 $ CK $end
$var wire 1 f CLR $end
$var wire 1 u D $end
$var wire 1 h PR $end
$var reg 1 v Q $end
$upscope $end
$upscope $end
$scope begin genblk1[4] $end
$var parameter 4 w i $end
$scope module ff $end
$var wire 1 $ CK $end
$var wire 1 f CLR $end
$var wire 1 x D $end
$var wire 1 h PR $end
$var reg 1 y Q $end
$upscope $end
$upscope $end
$scope begin genblk1[5] $end
$var parameter 4 z i $end
$scope module ff $end
$var wire 1 $ CK $end
$var wire 1 f CLR $end
$var wire 1 { D $end
$var wire 1 h PR $end
$var reg 1 | Q $end
$upscope $end
$upscope $end
$scope begin genblk1[6] $end
$var parameter 4 } i $end
$scope module ff $end
$var wire 1 $ CK $end
$var wire 1 f CLR $end
$var wire 1 ~ D $end
$var wire 1 h PR $end
$var reg 1 !" Q $end
$upscope $end
$upscope $end
$scope begin genblk1[7] $end
$var parameter 4 "" i $end
$scope module ff $end
$var wire 1 $ CK $end
$var wire 1 f CLR $end
$var wire 1 #" D $end
$var wire 1 h PR $end
$var reg 1 $" Q $end
$upscope $end
$upscope $end
$upscope $end
$scope module regS $end
$var wire 1 $ CK $end
$var wire 1 %" CLR $end
$var wire 8 &" D [7:0] $end
$var wire 1 '" PR $end
$var wire 8 (" Q [7:0] $end
$var parameter 32 )" N $end
$scope begin genblk1[0] $end
$var parameter 2 *" i $end
$scope module ff $end
$var wire 1 $ CK $end
$var wire 1 %" CLR $end
$var wire 1 +" D $end
$var wire 1 '" PR $end
$var reg 1 ," Q $end
$upscope $end
$upscope $end
$scope begin genblk1[1] $end
$var parameter 2 -" i $end
$scope module ff $end
$var wire 1 $ CK $end
$var wire 1 %" CLR $end
$var wire 1 ." D $end
$var wire 1 '" PR $end
$var reg 1 /" Q $end
$upscope $end
$upscope $end
$scope begin genblk1[2] $end
$var parameter 3 0" i $end
$scope module ff $end
$var wire 1 $ CK $end
$var wire 1 %" CLR $end
$var wire 1 1" D $end
$var wire 1 '" PR $end
$var reg 1 2" Q $end
$upscope $end
$upscope $end
$scope begin genblk1[3] $end
$var parameter 3 3" i $end
$scope module ff $end
$var wire 1 $ CK $end
$var wire 1 %" CLR $end
$var wire 1 4" D $end
$var wire 1 '" PR $end
$var reg 1 5" Q $end
$upscope $end
$upscope $end
$scope begin genblk1[4] $end
$var parameter 4 6" i $end
$scope module ff $end
$var wire 1 $ CK $end
$var wire 1 %" CLR $end
$var wire 1 7" D $end
$var wire 1 '" PR $end
$var reg 1 8" Q $end
$upscope $end
$upscope $end
$scope begin genblk1[5] $end
$var parameter 4 9" i $end
$scope module ff $end
$var wire 1 $ CK $end
$var wire 1 %" CLR $end
$var wire 1 :" D $end
$var wire 1 '" PR $end
$var reg 1 ;" Q $end
$upscope $end
$upscope $end
$scope begin genblk1[6] $end
$var parameter 4 <" i $end
$scope module ff $end
$var wire 1 $ CK $end
$var wire 1 %" CLR $end
$var wire 1 =" D $end
$var wire 1 '" PR $end
$var reg 1 >" Q $end
$upscope $end
$upscope $end
$scope begin genblk1[7] $end
$var parameter 4 ?" i $end
$scope module ff $end
$var wire 1 $ CK $end
$var wire 1 %" CLR $end
$var wire 1 @" D $end
$var wire 1 '" PR $end
$var reg 1 A" Q $end
$upscope $end
$upscope $end
$upscope $end
$scope module somador $end
$var wire 8 B" a [7:0] $end
$var wire 8 C" b [7:0] $end
$var wire 9 D" s [8:0] $end
$var wire 7 E" c [6:0] $end
$scope module u1 $end
$var wire 1 F" a $end
$var wire 1 G" b $end
$var wire 1 H" c $end
$var wire 1 I" s $end
$upscope $end
$scope module u2 $end
$var wire 1 J" a $end
$var wire 1 K" b $end
$var wire 1 L" c_in $end
$var wire 1 M" c_out $end
$var wire 1 N" s $end
$upscope $end
$scope module u3 $end
$var wire 1 O" a $end
$var wire 1 P" b $end
$var wire 1 Q" c_in $end
$var wire 1 R" c_out $end
$var wire 1 S" s $end
$upscope $end
$scope module u4 $end
$var wire 1 T" a $end
$var wire 1 U" b $end
$var wire 1 V" c_in $end
$var wire 1 W" c_out $end
$var wire 1 X" s $end
$upscope $end
$scope module u5 $end
$var wire 1 Y" a $end
$var wire 1 Z" b $end
$var wire 1 [" c_in $end
$var wire 1 \" c_out $end
$var wire 1 ]" s $end
$upscope $end
$scope module u6 $end
$var wire 1 ^" a $end
$var wire 1 _" b $end
$var wire 1 `" c_in $end
$var wire 1 a" c_out $end
$var wire 1 b" s $end
$upscope $end
$scope module u7 $end
$var wire 1 c" a $end
$var wire 1 d" b $end
$var wire 1 e" c_in $end
$var wire 1 f" c_out $end
$var wire 1 g" s $end
$upscope $end
$scope module u8 $end
$var wire 1 h" a $end
$var wire 1 i" b $end
$var wire 1 j" c_in $end
$var wire 1 k" c_out $end
$var wire 1 l" s $end
$upscope $end
$upscope $end
$scope module subtrator $end
$var wire 8 m" a [7:0] $end
$var wire 8 n" b [7:0] $end
$var wire 9 o" d [8:0] $end
$var wire 7 p" c [6:0] $end
$scope module u1 $end
$var wire 1 q" a $end
$var wire 1 r" b $end
$var wire 1 s" c $end
$var wire 1 t" s $end
$upscope $end
$scope module u2 $end
$var wire 1 u" a $end
$var wire 1 v" b $end
$var wire 1 w" c_in $end
$var wire 1 x" c_out $end
$var wire 1 y" s $end
$upscope $end
$scope module u3 $end
$var wire 1 z" a $end
$var wire 1 {" b $end
$var wire 1 |" c_in $end
$var wire 1 }" c_out $end
$var wire 1 ~" s $end
$upscope $end
$scope module u4 $end
$var wire 1 !# a $end
$var wire 1 "# b $end
$var wire 1 ## c_in $end
$var wire 1 $# c_out $end
$var wire 1 %# s $end
$upscope $end
$scope module u5 $end
$var wire 1 &# a $end
$var wire 1 '# b $end
$var wire 1 (# c_in $end
$var wire 1 )# c_out $end
$var wire 1 *# s $end
$upscope $end
$scope module u6 $end
$var wire 1 +# a $end
$var wire 1 ,# b $end
$var wire 1 -# c_in $end
$var wire 1 .# c_out $end
$var wire 1 /# s $end
$upscope $end
$scope module u7 $end
$var wire 1 0# a $end
$var wire 1 1# b $end
$var wire 1 2# c_in $end
$var wire 1 3# c_out $end
$var wire 1 4# s $end
$upscope $end
$scope module u8 $end
$var wire 1 5# a $end
$var wire 1 6# b $end
$var wire 1 7# c_in $end
$var wire 1 8# c_out $end
$var wire 1 9# s $end
$upscope $end
$upscope $end
$scope module tristate_and $end
$var wire 8 :# a [7:0] $end
$var wire 1 ;# en $end
$var reg 8 <# b [7:0] $end
$upscope $end
$scope module tristate_desigualdade $end
$var wire 8 =# a [7:0] $end
$var wire 1 ># en $end
$var reg 8 ?# b [7:0] $end
$upscope $end
$scope module tristate_igualdade $end
$var wire 8 @# a [7:0] $end
$var wire 1 A# en $end
$var reg 8 B# b [7:0] $end
$upscope $end
$scope module tristate_not $end
$var wire 8 C# a [7:0] $end
$var wire 1 D# en $end
$var reg 8 E# b [7:0] $end
$upscope $end
$scope module tristate_or $end
$var wire 8 F# a [7:0] $end
$var wire 1 G# en $end
$var reg 8 H# b [7:0] $end
$upscope $end
$scope module tristate_soma $end
$var wire 8 I# a [7:0] $end
$var wire 1 J# en $end
$var reg 8 K# b [7:0] $end
$upscope $end
$scope module tristate_subtracao $end
$var wire 8 L# a [7:0] $end
$var wire 1 M# en $end
$var reg 8 N# b [7:0] $end
$upscope $end
$scope module tristate_xor $end
$var wire 1 O# en $end
$var wire 8 P# a [7:0] $end
$var reg 8 Q# b [7:0] $end
$upscope $end
$scope module xor_modulo $end
$var wire 8 R# a [7:0] $end
$var wire 8 S# b [7:0] $end
$var wire 8 T# s [7:0] $end
$upscope $end
$upscope $end
$upscope $end
$enddefinitions $end
$comment Show the parameter values. $end
$dumpall
b111 ?"
b110 <"
b101 9"
b100 6"
b11 3"
b10 0"
b1 -"
b0 *"
b1000 )"
b111 ""
b110 }
b101 z
b100 w
b11 t
b10 q
b1 n
b0 k
b1000 j
b111 c
b110 `
b101 ]
b100 Z
b11 W
b10 T
b1 Q
b0 N
b1000 M
b1000 6
$end
#0
$dumpvars
bx T#
bx S#
bx R#
bz Q#
bx P#
0O#
bz N#
0M#
bx L#
bx K#
1J#
bx I#
bz H#
0G#
bx F#
bz E#
0D#
bx C#
bz B#
0A#
b0x @#
bz ?#
0>#
b0x =#
bz <#
0;#
bx :#
x9#
x8#
x7#
x6#
x5#
x4#
x3#
x2#
x1#
x0#
x/#
x.#
x-#
x,#
x+#
x*#
x)#
x(#
x'#
x&#
x%#
x$#
x##
x"#
x!#
x~"
x}"
x|"
x{"
xz"
xy"
xx"
xw"
xv"
xu"
xt"
xs"
xr"
xq"
bx p"
bx o"
bx n"
bx m"
xl"
xk"
xj"
xi"
xh"
xg"
xf"
xe"
xd"
xc"
xb"
xa"
x`"
x_"
x^"
x]"
x\"
x["
xZ"
xY"
xX"
xW"
xV"
xU"
xT"
xS"
xR"
xQ"
xP"
xO"
xN"
xM"
xL"
xK"
xJ"
xI"
xH"
xG"
xF"
bx E"
bx D"
bx C"
bx B"
xA"
x@"
x>"
x="
x;"
x:"
x8"
x7"
x5"
x4"
x2"
x1"
x/"
x."
x,"
x+"
bx ("
1'"
bx &"
1%"
x$"
0#"
x!"
0~
x|
0{
xy
0x
xv
1u
xs
0r
xp
1o
xm
0l
bx i
1h
b1010 g
1f
xe
0d
xb
0a
x_
0^
x\
0[
xY
0X
xV
1U
xS
0R
xP
1O
bx L
1K
b101 J
1I
bx H
bx G
bx F
bx E
bx D
bx C
bx B
bx A
bx @
bx ?
bx >
b1 =
1<
b0 ;
bx :
bx 9
bx 8
x7
bx 5
bx 4
bx 3
x2
b1 1
x0
bx /
bx .
bx -
bx ,
bx +
bx *
bx )
b0 (
b1010 '
b101 &
b0 %
0$
b1010 #
b101 "
bx !
$end
#10
1$
#20
07"
0]"
14"
0["
0W"
1X"
11"
0V"
0%#
0R"
0:"
0="
0@"
1##
1}"
1S"
0Q"
0l"
0g"
0b"
1*#
1."
0~"
0M"
09#
04#
0/#
07
0j"
0e"
0`"
1(#
1|"
1+"
07#
02#
0-#
0k"
0f"
0a"
0\"
1$#
1x"
b1111 )
b1111 &"
b1111 K#
08#
03#
0.#
0)#
b10000 L#
1N"
0y"
b1111 I#
0L"
1w"
b10000 ,
b10000 o"
0s"
b1111 +
b1111 D"
1I"
b0 E"
0H"
b1111 p"
1t"
0i"
06#
0d"
01#
0_"
0,#
0Z"
0'#
1U"
1"#
0P"
0{"
1K"
1v"
0G"
0r"
0h"
05#
0c"
00#
0^"
0+#
0Y"
0&#
0T"
0!#
1O"
1z"
0J"
0u"
1F"
1q"
b1111 *
b1111 P#
b1111 T#
b1111 .
b1111 F
b1111 F#
b11111010 /
b11111010 D
b11111010 C#
b0 @#
00
b11110000 A
b1 =#
12
b1111 >
b0 4
b0 8
b0 :#
0$"
0!"
0|
0y
1v
0s
1p
b1010 3
b1010 9
b1010 ?
b1010 B
b1010 G
b1010 i
b1010 C"
b1010 n"
b1010 S#
0m
0e
0b
0_
0\
0Y
1V
0S
b101 5
b101 :
b101 @
b101 C
b101 E
b101 H
b101 L
b101 B"
b101 m"
b101 R#
1P
0$
#30
1$
#40
1,"
1/"
12"
15"
08"
0;"
0>"
b1111 !
b1111 -
b1111 ("
0A"
0$
#50
0+"
0."
01"
04"
17"
b10000 N#
b10000 )
b10000 &"
bz K#
1M#
0J#
1R
1X
b10 1
b10 =
1$
b1111 "
b1111 &
b1111 J
b1 %
b1 (
b1 ;
#60
1V"
1R"
1."
14"
1]"
0S"
b11010 )
b11010 &"
b11010 N#
1["
b11001 I#
1Q"
b11010 L#
1X"
1W"
1%#
b11001 +
b11001 D"
0N"
b1110 E"
1M"
b11010 ,
b11010 o"
1y"
1T"
1!#
1J"
1u"
b101 *
b101 P#
b101 T#
b11110000 /
b11110000 D
b11110000 C#
b11111010 A
b101 >
b1010 4
b1010 8
b1010 :#
18"
05"
02"
0/"
b10000 !
b10000 -
b10000 ("
0,"
1Y
b1111 5
b1111 :
b1111 @
b1111 C
b1111 E
b1111 H
b1111 L
b1111 B"
b1111 m"
b1111 R#
1S
0$
#70
1$
#80
1/"
b11010 !
b11010 -
b11010 ("
15"
0$
#90
1$
#100
18#
19#
17#
0X"
13#
0V"
1~"
0R"
0|"
0x"
12#
1S"
1.#
0Q"
b10111110 L#
1b"
1/#
1N"
b1000 E"
0M"
1k"
1g"
b110111110 ,
b110111110 o"
04#
b1110110 I#
0w"
0."
07"
1@"
b101110110 +
b101110110 D"
0I"
b1101100 p"
0t"
b10001000 <#
b10001000 )
b10001000 &"
bz N#
1i"
16#
1_"
1,#
1P"
1{"
0K"
0v"
1h"
15#
1c"
10#
0O"
0z"
0F"
0q"
b1100110 *
b1100110 P#
b1100110 T#
b11101110 .
b11101110 F
b11101110 F#
b110101 /
b110101 D
b110101 C#
b10011001 A
b1100110 >
b10001000 4
b10001000 8
b10001000 :#
1;#
0M#
1$"
1|
1s
b10101100 3
b10101100 9
b10101100 ?
b10101100 B
b10101100 G
b10101100 i
b10101100 C"
b10101100 n"
b10101100 S#
0p
1e
1b
0V
b11001010 5
b11001010 :
b11001010 @
b11001010 C
b11001010 E
b11001010 H
b11001010 L
b11001010 B"
b11001010 m"
b11001010 R#
0P
0o
1r
1{
1#"
0O
0U
1a
1d
b100 1
b100 =
0$
b10101100 #
b10101100 '
b10101100 g
b11001010 "
b11001010 &
b11001010 J
b10 %
b10 (
b10 ;
#110
1$
#120
0/"
08"
b10001000 !
b10001000 -
b10001000 ("
1A"
0$
#130
1$
#140
0$
#150
1."
11"
1:"
1="
b11101110 H#
b11101110 )
b11101110 &"
bz <#
1G#
0;#
b1000 1
b1000 =
1$
b11 %
b11 (
b11 ;
#160
1/"
12"
1;"
b11101110 !
b11101110 -
b11101110 ("
1>"
0$
#170
1$
#180
0$
#190
1$
#200
04"
0@"
b1100110 Q#
b1100110 )
b1100110 &"
bz H#
1O#
0G#
b10000 1
b10000 =
0$
b100 %
b100 (
b100 ;
#210
1$
#220
0A"
b1100110 !
b1100110 -
b1100110 ("
05"
0$
#230
1$
#240
0$
#250
1+"
0."
17"
0="
b110101 E#
b110101 )
b110101 &"
bz Q#
1D#
0O#
0R
0X
1[
1^
b100000 1
b100000 =
1$
b11110000 "
b11110000 &
b11110000 J
b101 %
b101 (
b101 ;
#260
19#
17#
1l"
13#
1j"
1f"
04#
12#
0g"
1.#
0`"
1-#
1e"
0\"
b1111100 p"
1)#
0["
b10011100 I#
b10100100 L#
0b"
1a"
1/#
1]"
0*#
1X"
b1100000 E"
0W"
0%#
b110011100 +
b110011100 D"
0N"
b110100100 ,
b110100100 o"
0y"
1."
14"
07"
0:"
b1111 )
b1111 &"
b1111 E#
1^"
1+#
1Y"
1&#
0T"
0!#
0J"
0u"
b1011100 *
b1011100 P#
b1011100 T#
b11111100 .
b11111100 F
b11111100 F#
b1111 /
b1111 D
b1111 C#
b10100011 A
b1011100 >
b10100000 4
b10100000 8
b10100000 :#
0>"
18"
0/"
b110101 !
b110101 -
b110101 ("
1,"
1_
1\
0Y
b11110000 5
b11110000 :
b11110000 @
b11110000 C
b11110000 E
b11110000 H
b11110000 L
b11110000 B"
b11110000 m"
b11110000 R#
0S
0$
#270
1$
#280
1/"
15"
08"
b1111 !
b1111 -
b1111 ("
0;"
0$
#290
1$
#300
0(#
0$#
0l"
09#
0/#
0##
0j"
07#
0-#
02#
0}"
0k"
0f"
03#
0e"
0)#
b10100 I#
1["
b0 L#
1Q"
08#
b0 p"
0.#
1S"
0~"
0g"
04#
0a"
1]"
0*#
b10100 +
b10100 D"
0X"
1W"
b0 ,
b0 o"
0%#
b1010 E"
1M"
0."
01"
04"
b1 B#
b1 )
b1 &"
bz E#
0i"
06#
0_"
0,#
0P"
0{"
1K"
1v"
0h"
05#
0c"
00#
0^"
0+#
0Y"
0&#
1T"
1!#
1J"
1u"
b0 *
b0 P#
b0 T#
b1010 .
b1010 F
b1010 F#
b11110101 /
b11110101 D
b11110101 C#
b1 @#
10
b11111111 A
b0 =#
02
b0 >
b1010 4
b1010 8
b1010 :#
1A#
0D#
0$"
0|
0s
b1010 3
b1010 9
b1010 ?
b1010 B
b1010 G
b1010 i
b1010 C"
b1010 n"
b1010 S#
1p
0e
0b
0_
0\
1Y
b1010 5
b1010 :
b1010 @
b1010 C
b1010 E
b1010 H
b1010 L
b1010 B"
b1010 m"
b1010 R#
1S
1o
0r
0{
0#"
1R
1X
0[
0^
0a
0d
b1000000 1
b1000000 =
0$
b1010 #
b1010 '
b1010 g
b1010 "
b1010 &
b1010 J
b110 %
b110 (
b110 ;
#310
1$
#320
0/"
02"
b1 !
b1 -
b1 ("
05"
0$
#330
1$
#340
0$
#350
1O
0R
1U
0X
1$
b101 "
b101 &
b101 J
#360
1##
1}"
1*#
1|"
1(#
1x"
0V"
0]"
1$#
0Q"
0R"
0["
b10000 L#
b1111 I#
1w"
1N"
0M"
0y"
1S"
0~"
1X"
b0 E"
0W"
b10000 ,
b10000 o"
0%#
0+"
b1111 +
b1111 D"
1I"
b1111 p"
1t"
b0 )
b0 &"
b0 B#
1F"
1q"
0J"
0u"
1O"
1z"
0T"
0!#
b1111 *
b1111 P#
b1111 T#
b1111 .
b1111 F
b1111 F#
b11111010 /
b11111010 D
b11111010 C#
b0 @#
00
b11110000 A
b1 =#
12
b1111 >
b0 4
b0 8
b0 :#
1P
0S
1V
b101 5
b101 :
b101 @
b101 C
b101 E
b101 H
b101 L
b101 B"
b101 m"
b101 R#
0Y
0$
#370
1$
#380
b0 !
b0 -
b0 ("
0,"
0$
#390
1$
#400
b10001 L#
b10001 ,
b10001 o"
1s"
1+"
b1 ?#
b1 )
b1 &"
bz B#
0F"
0q"
1J"
1u"
0O"
0z"
1T"
1!#
b11110101 /
b11110101 D
b11110101 C#
1G"
1r"
0K"
0v"
1P"
1{"
0U"
0"#
1>#
0A#
0P
1S
0V
b1010 5
b1010 :
b1010 @
b1010 C
b1010 E
b1010 H
b1010 L
b1010 B"
b1010 m"
b1010 R#
1Y
1m
0p
1s
b101 3
b101 9
b101 ?
b101 B
b101 G
b101 i
b101 C"
b101 n"
b101 S#
0v
1l
0o
1r
0u
0O
1R
0U
1X
b10000000 1
b10000000 =
0$
b101 #
b101 '
b101 g
b1010 "
b1010 &
b1010 J
b111 %
b111 (
b111 ;
#410
1$
#420
b1 !
b1 -
b1 ("
1,"
0$
#430
1$
#440
0$
#450
0l
1o
0r
1u
1$
b1010 #
b1010 '
b1010 g
#460
0*#
0(#
0$#
0|"
0x"
1]"
0##
1["
0}"
1Q"
0X"
1W"
0%#
1S"
0~"
0N"
b1010 E"
1M"
b10100 I#
0w"
b0 L#
0+"
b10100 +
b10100 D"
0I"
b0 p"
0t"
b0 ,
b0 o"
0s"
b0 )
b0 &"
b0 ?#
1U"
1"#
0P"
0{"
1K"
1v"
0G"
0r"
b0 *
b0 P#
b0 T#
b1010 .
b1010 F
b1010 F#
b1 @#
10
b11111111 A
b0 =#
02
b0 >
b1010 4
b1010 8
b1010 :#
1v
0s
1p
b1010 3
b1010 9
b1010 ?
b1010 B
b1010 G
b1010 i
b1010 C"
b1010 n"
b1010 S#
0m
0$
#470
1$
#480
b0 !
b0 -
b0 ("
0,"
0$
